^D:\ROBERTO\PROJETOS\GAMES\PROJETOS EXEMPLOS\CPP_UNITYPLUGIN\UNITY\UNITYPLUGIN\UNITYPLUGIN\TESTDLLSORT.CPP
/c /Zi /nologo /W3 /WX- /sdl /O2 /Oi /Oy- /GL /D WIN32 /D NDEBUG /D _WINDOWS /D _USRDLL /D UNITYPLUGIN_EXPORTS /D _WINDLL /D _UNICODE /D UNICODE /Gm- /EHsc /MD /GS /Gy /fp:precise /Zc:wchar_t /Zc:forScope /Fo"RELEASE\\" /Fd"RELEASE\VC120.PDB" /Gd /TP /analyze- D:\ROBERTO\PROJETOS\GAMES\PROJETOS EXEMPLOS\CPP_UNITYPLUGIN\UNITY\UNITYPLUGIN\UNITYPLUGIN\TESTDLLSORT.CPP
^D:\ROBERTO\PROJETOS\GAMES\PROJETOS EXEMPLOS\CPP_UNITYPLUGIN\VISUALSTUDIO\UNITYPLUGIN\UNITYPLUGIN\TESTDLLSORT.CPP
/c /Zi /nologo /W3 /WX- /sdl /O2 /Oi /Oy- /GL /D WIN32 /D NDEBUG /D _WINDOWS /D _USRDLL /D UNITYPLUGIN_EXPORTS /D _WINDLL /D _UNICODE /D UNICODE /Gm- /EHsc /MD /GS /Gy /fp:precise /Zc:wchar_t /Zc:forScope /Fo"RELEASE\\" /Fd"RELEASE\VC120.PDB" /Gd /TP /analyze- D:\ROBERTO\PROJETOS\GAMES\PROJETOS EXEMPLOS\CPP_UNITYPLUGIN\VISUALSTUDIO\UNITYPLUGIN\UNITYPLUGIN\TESTDLLSORT.CPP
